{
  "project_info": {
    "project_number": "293626723897",
    "project_id": "iot2022-b58ac",
    "storage_bucket": "iot2022-b58ac.appspot.com"
  },
  "client": [
    {
      "client_info": {
        "mobilesdk_app_id": "1:293626723897:android:dc655b8d1b7d166c2917e8",
        "android_client_info": {
          "package_name": "com.example.iot_final"
        }
      },
      "oauth_client": [
        {
          "client_id": "293626723897-lup42fup21q8ulp0cb35cki8rfd3g9dc.apps.googleusercontent.com",
          "client_type": 1,
          "android_info": {
            "package_name": "com.example.iot_final",
            "certificate_hash": "1975cebb0f8ad69a3eca6e41e5bcc4c7fb1fcb09"
          }
        },
        {
          "client_id": "293626723897-jlrdfnq1ml97vatjqhfo19t0m5u80r73.apps.googleusercontent.com",
          "client_type": 3
        }
      ],
      "api_key": [
        {
          "current_key": "AIzaSyCEi7LUpOxm2wDikithpWN65MCVw3WXs2U"
        }
      ],
      "services": {
        "appinvite_service": {
          "other_platform_oauth_client": [
            {
              "client_id": "293626723897-jlrdfnq1ml97vatjqhfo19t0m5u80r73.apps.googleusercontent.com",
              "client_type": 3
            }
          ]
        }
      }
    }
  ],
  "configuration_version": "1"
}